{
  "project_info": {
    "project_number": "760442696328",
    "firebase_url": "https://truckio-shipper.firebaseio.com",
    "project_id": "truckio-shipper",
    "storage_bucket": "truckio-shipper.appspot.com"
  },
  "client": [
    {
      "client_info": {
        "mobilesdk_app_id": "1:760442696328:android:5c725184e3ea9e0e",
        "android_client_info": {
          "package_name": "com.truckio.findtrucks"
        }
      },
      "oauth_client": [
        {
          "client_id": "760442696328-meve4ftsej1tjbp4jl9jsv61vlaulfqi.apps.googleusercontent.com",
          "client_type": 1,
          "android_info": {
            "package_name": "com.truckio.findtrucks",
            "certificate_hash": "af25f2ddbf08003db128211b27541545bd904ffd"
          }
        },
        {
          "client_id": "760442696328-kh54n56hdhpm0q3i9i9pmoh0ljm2jmfj.apps.googleusercontent.com",
          "client_type": 3
        }
      ],
      "api_key": [
        {
          "current_key": "AIzaSyDOooeu1_oobUF1S5FrUD3fzvfYxwvDulw"
        }
      ],
      "services": {
        "appinvite_service": {
          "other_platform_oauth_client": [
            {
              "client_id": "760442696328-kh54n56hdhpm0q3i9i9pmoh0ljm2jmfj.apps.googleusercontent.com",
              "client_type": 3
            }
          ]
        }
      }
    }
  ],
  "configuration_version": "1"
}